%YAML 1.1
%TAG !u! tag:unity3d.com,2011:
--- !u!1045 &1
EditorBuildSettings:
  m_ObjectHideFlags: 0
  serializedVersion: 2
  m_Scenes:
  - enabled: 1
    path: Assets/Scenes/Main_Menu.unity
    guid: c254d980b4af6504f92f9d3bfb01e2e3
  - enabled: 1
    path: Assets/Scenes/SampleScene.unity
    guid: 100c82ee1fb47fa48b02dd047f133bc7
  m_configObjects: {}
