%YAML 1.1
%TAG !u! tag:unity3d.com,2011:
--- !u!74 &7400000
AnimationClip:
  m_ObjectHideFlags: 0
  m_CorrespondingSourceObject: {fileID: 0}
  m_PrefabInstance: {fileID: 0}
  m_PrefabAsset: {fileID: 0}
  m_Name: Default_Cam
  serializedVersion: 6
  m_Legacy: 0
  m_Compressed: 0
  m_UseHighQualityCurve: 1
  m_RotationCurves: []
  m_CompressedRotationCurves: []
  m_EulerCurves:
  - curve:
      serializedVersion: 2
      m_Curve:
      - serializedVersion: 3
        time: 0
        value: {x: 17.701, y: 0, z: 0}
        inSlope: {x: 0, y: 0, z: 0}
        outSlope: {x: 0, y: 0, z: 0}
        tangentMode: 0
        weightedMode: 0
        inWeight: {x: 0, y: 0.33333334, z: 0.33333334}
        outWeight: {x: 0, y: 0.33333334, z: 0.33333334}
      m_PreInfinity: 2
      m_PostInfinity: 2
      m_RotationOrder: 4
    path: 
  m_PositionCurves:
  - curve:
      serializedVersion: 2
      m_Curve:
      - serializedVersion: 3
        time: 0
        value: {x: -5.009, y: 7, z: -16}
        inSlope: {x: -0.08709257, y: 0.18227476, z: 0}
        outSlope: {x: -0.08709257, y: 0.18227476, z: 0}
        tangentMode: 0
        weightedMode: 0
        inWeight: {x: 0.33333334, y: 0.33333334, z: 0.33333334}
        outWeight: {x: 0.24262185, y: 0.23346631, z: 0.33333334}
      - serializedVersion: 3
        time: 3
        value: {x: -5.354, y: 6.845, z: -16.042}
        inSlope: {x: 0, y: 0, z: 0.46421528}
        outSlope: {x: 0, y: 0, z: 0.46421528}
        tangentMode: 0
        weightedMode: 0
        inWeight: {x: 0.33333334, y: 0.33333334, z: 0.33333334}
        outWeight: {x: 0.33333334, y: 0.33333334, z: 0.23142035}
      - serializedVersion: 3
        time: 6
        value: {x: -4.679, y: 7.138, z: -15.964}
        inSlope: {x: 0.07450693, y: -0.38326797, z: -0.33005387}
        outSlope: {x: 0.07450693, y: -0.38326797, z: -0.33005387}
        tangentMode: 0
        weightedMode: 0
        inWeight: {x: 0.33333334, y: 0.21924718, z: 0.2467138}
        outWeight: {x: 0.22479661, y: 0.2019078, z: 0.33333334}
      - serializedVersion: 3
        time: 9
        value: {x: -5.354, y: 6.845, z: -16.042}
        inSlope: {x: 0.27865103, y: -0.24594171, z: 0.19068313}
        outSlope: {x: 0.27865103, y: -0.24594171, z: 0.19068313}
        tangentMode: 0
        weightedMode: 0
        inWeight: {x: 0.19382636, y: 0.2075599, z: 0.21213754}
        outWeight: {x: 0.33333334, y: 0.21817303, z: 0.33333334}
      - serializedVersion: 3
        time: 12
        value: {x: -5.009, y: 7, z: -16}
        inSlope: {x: 0, y: 0, z: 0}
        outSlope: {x: 0, y: 0, z: 0}
        tangentMode: 0
        weightedMode: 0
        inWeight: {x: 0.33333334, y: 0.33333334, z: 0.33333334}
        outWeight: {x: 0.33333334, y: 0.33333334, z: 0.33333334}
      m_PreInfinity: 2
      m_PostInfinity: 2
      m_RotationOrder: 4
    path: 
  m_ScaleCurves: []
  m_FloatCurves: []
  m_PPtrCurves: []
  m_SampleRate: 10
  m_WrapMode: 0
  m_Bounds:
    m_Center: {x: 0, y: 0, z: 0}
    m_Extent: {x: 0, y: 0, z: 0}
  m_ClipBindingConstant:
    genericBindings:
    - serializedVersion: 2
      path: 0
      attribute: 1
      script: {fileID: 0}
      typeID: 4
      customType: 0
      isPPtrCurve: 0
    - serializedVersion: 2
      path: 0
      attribute: 4
      script: {fileID: 0}
      typeID: 4
      customType: 4
      isPPtrCurve: 0
    pptrCurveMapping: []
  m_AnimationClipSettings:
    serializedVersion: 2
    m_AdditiveReferencePoseClip: {fileID: 0}
    m_AdditiveReferencePoseTime: 0
    m_StartTime: 0
    m_StopTime: 12
    m_OrientationOffsetY: 0
    m_Level: 0
    m_CycleOffset: 0
    m_HasAdditiveReferencePose: 0
    m_LoopTime: 1
    m_LoopBlend: 0
    m_LoopBlendOrientation: 0
    m_LoopBlendPositionY: 0
    m_LoopBlendPositionXZ: 0
    m_KeepOriginalOrientation: 0
    m_KeepOriginalPositionY: 1
    m_KeepOriginalPositionXZ: 0
    m_HeightFromFeet: 0
    m_Mirror: 0
  m_EditorCurves:
  - curve:
      serializedVersion: 2
      m_Curve:
      - serializedVersion: 3
        time: 0
        value: -5.009
        inSlope: -0.08709257
        outSlope: -0.08709257
        tangentMode: 0
        weightedMode: 0
        inWeight: 0.33333334
        outWeight: 0.24262185
      - serializedVersion: 3
        time: 3
        value: -5.354
        inSlope: 0
        outSlope: 0
        tangentMode: 136
        weightedMode: 0
        inWeight: 0.33333334
        outWeight: 0.33333334
      - serializedVersion: 3
        time: 6
        value: -4.679
        inSlope: 0.07450693
        outSlope: 0.07450693
        tangentMode: 0
        weightedMode: 0
        inWeight: 0.33333334
        outWeight: 0.22479661
      - serializedVersion: 3
        time: 9
        value: -5.354
        inSlope: 0.27865103
        outSlope: 0.27865103
        tangentMode: 0
        weightedMode: 0
        inWeight: 0.19382636
        outWeight: 0.33333334
      - serializedVersion: 3
        time: 12
        value: -5.009
        inSlope: 0
        outSlope: 0
        tangentMode: 136
        weightedMode: 0
        inWeight: 0.33333334
        outWeight: 0.33333334
      m_PreInfinity: 2
      m_PostInfinity: 2
      m_RotationOrder: 4
    attribute: m_LocalPosition.x
    path: 
    classID: 4
    script: {fileID: 0}
  - curve:
      serializedVersion: 2
      m_Curve:
      - serializedVersion: 3
        time: 0
        value: 7
        inSlope: 0.18227476
        outSlope: 0.18227476
        tangentMode: 0
        weightedMode: 0
        inWeight: 0.33333334
        outWeight: 0.23346631
      - serializedVersion: 3
        time: 3
        value: 6.845
        inSlope: 0
        outSlope: 0
        tangentMode: 136
        weightedMode: 0
        inWeight: 0.33333334
        outWeight: 0.33333334
      - serializedVersion: 3
        time: 6
        value: 7.138
        inSlope: -0.38326797
        outSlope: -0.38326797
        tangentMode: 0
        weightedMode: 0
        inWeight: 0.21924718
        outWeight: 0.2019078
      - serializedVersion: 3
        time: 9
        value: 6.845
        inSlope: -0.24594171
        outSlope: -0.24594171
        tangentMode: 0
        weightedMode: 0
        inWeight: 0.2075599
        outWeight: 0.21817303
      - serializedVersion: 3
        time: 12
        value: 7
        inSlope: 0
        outSlope: 0
        tangentMode: 136
        weightedMode: 0
        inWeight: 0.33333334
        outWeight: 0.33333334
      m_PreInfinity: 2
      m_PostInfinity: 2
      m_RotationOrder: 4
    attribute: m_LocalPosition.y
    path: 
    classID: 4
    script: {fileID: 0}
  - curve:
      serializedVersion: 2
      m_Curve:
      - serializedVersion: 3
        time: 0
        value: -16
        inSlope: 0
        outSlope: 0
        tangentMode: 136
        weightedMode: 0
        inWeight: 0.33333334
        outWeight: 0.33333334
      - serializedVersion: 3
        time: 3
        value: -16.042
        inSlope: 0.46421528
        outSlope: 0.46421528
        tangentMode: 0
        weightedMode: 0
        inWeight: 0.33333334
        outWeight: 0.23142035
      - serializedVersion: 3
        time: 6
        value: -15.964
        inSlope: -0.33005387
        outSlope: -0.33005387
        tangentMode: 0
        weightedMode: 0
        inWeight: 0.2467138
        outWeight: 0.33333334
      - serializedVersion: 3
        time: 9
        value: -16.042
        inSlope: 0.19068313
        outSlope: 0.19068313
        tangentMode: 0
        weightedMode: 0
        inWeight: 0.21213754
        outWeight: 0.33333334
      - serializedVersion: 3
        time: 12
        value: -16
        inSlope: 0
        outSlope: 0
        tangentMode: 136
        weightedMode: 0
        inWeight: 0.33333334
        outWeight: 0.33333334
      m_PreInfinity: 2
      m_PostInfinity: 2
      m_RotationOrder: 4
    attribute: m_LocalPosition.z
    path: 
    classID: 4
    script: {fileID: 0}
  - curve:
      serializedVersion: 2
      m_Curve:
      - serializedVersion: 3
        time: 0
        value: 17.701
        inSlope: 0
        outSlope: 0
        tangentMode: 136
        weightedMode: 0
        inWeight: 0
        outWeight: 0
      m_PreInfinity: 2
      m_PostInfinity: 2
      m_RotationOrder: 4
    attribute: localEulerAnglesRaw.x
    path: 
    classID: 4
    script: {fileID: 0}
  - curve:
      serializedVersion: 2
      m_Curve:
      - serializedVersion: 3
        time: 0
        value: 0
        inSlope: 0
        outSlope: 0
        tangentMode: 136
        weightedMode: 0
        inWeight: 0
        outWeight: 0
      m_PreInfinity: 2
      m_PostInfinity: 2
      m_RotationOrder: 4
    attribute: localEulerAnglesRaw.y
    path: 
    classID: 4
    script: {fileID: 0}
  - curve:
      serializedVersion: 2
      m_Curve:
      - serializedVersion: 3
        time: 0
        value: 0
        inSlope: 0
        outSlope: 0
        tangentMode: 136
        weightedMode: 0
        inWeight: 0
        outWeight: 0
      m_PreInfinity: 2
      m_PostInfinity: 2
      m_RotationOrder: 4
    attribute: localEulerAnglesRaw.z
    path: 
    classID: 4
    script: {fileID: 0}
  m_EulerEditorCurves:
  - curve:
      serializedVersion: 2
      m_Curve: []
      m_PreInfinity: 2
      m_PostInfinity: 2
      m_RotationOrder: 4
    attribute: m_LocalEulerAngles.x
    path: 
    classID: 4
    script: {fileID: 0}
  - curve:
      serializedVersion: 2
      m_Curve: []
      m_PreInfinity: 2
      m_PostInfinity: 2
      m_RotationOrder: 4
    attribute: m_LocalEulerAngles.y
    path: 
    classID: 4
    script: {fileID: 0}
  - curve:
      serializedVersion: 2
      m_Curve: []
      m_PreInfinity: 2
      m_PostInfinity: 2
      m_RotationOrder: 4
    attribute: m_LocalEulerAngles.z
    path: 
    classID: 4
    script: {fileID: 0}
  m_HasGenericRootTransform: 1
  m_HasMotionFloatCurves: 0
  m_Events: []
